<svg width="22" height="21" viewBox="0 0 22 21" fill="none" xmlns="http://www.w3.org/2000/svg">
<rect x="21.7085" y="9.98999" width="1.01015" height="20.3144" transform="rotate(90 21.7085 9.98999)" fill="white"/>
<rect x="0.383911" y="10.495" width="1.01015" height="14.1421" transform="rotate(-45 0.383911 10.495)" fill="white"/>
<rect width="1.01015" height="14.1421" transform="matrix(0.707107 0.707107 0.707107 -0.707107 0.383911 10.495)" fill="white"/>
</svg>
